outputs/fitimage-helios_diskswap.bin
===============================================================================
Intel (R) Flash Image Tool. Version: 14.0.39.1367
Copyright (c) 2013 - 2020, Intel Corporation. All rights reserved.
9/22/2020 - 8:25:45 pm
===============================================================================




Program terminated.
-------------------
2f93215a5141aa29f21b55d7a2684316647f0526e7416808a6d3447099d75104  pchc.bin
266a4a9b993cc503ceccf959b2061a5603ab7131fb3509f363e5d22e83e4aa87  pmc.bin
471e0cb1b8fa8cb45c86ddd7c13dc357a78f18751ba35a2834accf2416b41f35  oem_km.bin
a9d7a44b7c186f783b8d2fcdc01c8cdb680f3a224c3f076934f1691517357122  fit.exe
8115a5f5975176125244eb1ca604861126ed268cd56ea48673efcfa6eae35614  meu.exe
09dfa9ee3f4ab4fcc8b86f71d5a10b1ac7118127a2f4f55695add1d631a80315  vsccommn.bin
